%YAML 1.1
%TAG !u! tag:unity3d.com,2011:
--- !u!74 &7400000
AnimationClip:
  m_ObjectHideFlags: 0
  m_CorrespondingSourceObject: {fileID: 0}
  m_PrefabInstance: {fileID: 0}
  m_PrefabAsset: {fileID: 0}
  m_Name: ninjadead
  serializedVersion: 6
  m_Legacy: 0
  m_Compressed: 0
  m_UseHighQualityCurve: 1
  m_RotationCurves: []
  m_CompressedRotationCurves: []
  m_EulerCurves: []
  m_PositionCurves: []
  m_ScaleCurves: []
  m_FloatCurves: []
  m_PPtrCurves:
  - curve:
    - time: 0
      value: {fileID: 21300000, guid: e162207e92d116241a0c622195822689, type: 3}
    - time: 0.083333336
      value: {fileID: 21300000, guid: f081c9254db5ed347855d1a1009771b3, type: 3}
    - time: 0.16666667
      value: {fileID: 21300000, guid: f215229f2d775d845b7887f97549dd68, type: 3}
    - time: 0.25
      value: {fileID: 21300000, guid: f9db852a834703543a15e121057e018d, type: 3}
    - time: 0.33333334
      value: {fileID: 21300000, guid: a41ffdb55ed712c40a58084fe34e17fa, type: 3}
    - time: 0.41666666
      value: {fileID: 21300000, guid: 290e538803debac4c9a85cde619219ca, type: 3}
    - time: 0.5
      value: {fileID: 21300000, guid: 4185ca8636bf62f4294d5f896941d17d, type: 3}
    - time: 0.5833333
      value: {fileID: 21300000, guid: b45fedc978ef10c4289c355b129d872f, type: 3}
    - time: 0.6666667
      value: {fileID: 21300000, guid: 4043c06513595d340ae91eaa26d68e86, type: 3}
    - time: 0.75
      value: {fileID: 21300000, guid: 9f8b7829128463f44b8ef30bec87daad, type: 3}
    attribute: m_Sprite
    path: 
    classID: 212
    script: {fileID: 0}
  m_SampleRate: 12
  m_WrapMode: 0
  m_Bounds:
    m_Center: {x: 0, y: 0, z: 0}
    m_Extent: {x: 0, y: 0, z: 0}
  m_ClipBindingConstant:
    genericBindings:
    - serializedVersion: 2
      path: 0
      attribute: 0
      script: {fileID: 0}
      typeID: 212
      customType: 23
      isPPtrCurve: 1
    pptrCurveMapping:
    - {fileID: 21300000, guid: e162207e92d116241a0c622195822689, type: 3}
    - {fileID: 21300000, guid: f081c9254db5ed347855d1a1009771b3, type: 3}
    - {fileID: 21300000, guid: f215229f2d775d845b7887f97549dd68, type: 3}
    - {fileID: 21300000, guid: f9db852a834703543a15e121057e018d, type: 3}
    - {fileID: 21300000, guid: a41ffdb55ed712c40a58084fe34e17fa, type: 3}
    - {fileID: 21300000, guid: 290e538803debac4c9a85cde619219ca, type: 3}
    - {fileID: 21300000, guid: 4185ca8636bf62f4294d5f896941d17d, type: 3}
    - {fileID: 21300000, guid: b45fedc978ef10c4289c355b129d872f, type: 3}
    - {fileID: 21300000, guid: 4043c06513595d340ae91eaa26d68e86, type: 3}
    - {fileID: 21300000, guid: 9f8b7829128463f44b8ef30bec87daad, type: 3}
  m_AnimationClipSettings:
    serializedVersion: 2
    m_AdditiveReferencePoseClip: {fileID: 0}
    m_AdditiveReferencePoseTime: 0
    m_StartTime: 0
    m_StopTime: 0.8333333
    m_OrientationOffsetY: 0
    m_Level: 0
    m_CycleOffset: 0
    m_HasAdditiveReferencePose: 0
    m_LoopTime: 0
    m_LoopBlend: 0
    m_LoopBlendOrientation: 0
    m_LoopBlendPositionY: 0
    m_LoopBlendPositionXZ: 0
    m_KeepOriginalOrientation: 0
    m_KeepOriginalPositionY: 1
    m_KeepOriginalPositionXZ: 0
    m_HeightFromFeet: 0
    m_Mirror: 0
  m_EditorCurves: []
  m_EulerEditorCurves: []
  m_HasGenericRootTransform: 0
  m_HasMotionFloatCurves: 0
  m_Events: []
