%YAML 1.1
%TAG !u! tag:unity3d.com,2011:
--- !u!74 &7400000
AnimationClip:
  m_ObjectHideFlags: 0
  m_CorrespondingSourceObject: {fileID: 0}
  m_PrefabInstance: {fileID: 0}
  m_PrefabAsset: {fileID: 0}
  m_Name: zombiewalk
  serializedVersion: 6
  m_Legacy: 0
  m_Compressed: 0
  m_UseHighQualityCurve: 1
  m_RotationCurves: []
  m_CompressedRotationCurves: []
  m_EulerCurves: []
  m_PositionCurves: []
  m_ScaleCurves: []
  m_FloatCurves: []
  m_PPtrCurves:
  - curve:
    - time: 0
      value: {fileID: 21300000, guid: 1b49ae4bd9b0fac4d844ac493a7733cf, type: 3}
    - time: 0.083333336
      value: {fileID: 21300000, guid: 928aead93963f4d4580b18f0d8b1f0a1, type: 3}
    - time: 0.16666667
      value: {fileID: 21300000, guid: 94421c04fcaec1c458bc39d62fcc93a7, type: 3}
    - time: 0.25
      value: {fileID: 21300000, guid: 7ce1d7cb63f4fc4478f978bf84ea96ee, type: 3}
    - time: 0.41666666
      value: {fileID: 21300000, guid: d1c1c76dd17723949beb507b58b9e958, type: 3}
    - time: 0.5
      value: {fileID: 21300000, guid: f317c5f76520b0a428713af4bc50aa68, type: 3}
    - time: 0.5833333
      value: {fileID: 21300000, guid: 12691dc202fe5784fb84fd32adc070d4, type: 3}
    - time: 0.6666667
      value: {fileID: 21300000, guid: 586180d4df40c534bb5f1ced7e979e91, type: 3}
    - time: 0.75
      value: {fileID: 21300000, guid: 2b61ec3d7ac85d7448238a4e1c62aa5a, type: 3}
    attribute: m_Sprite
    path: 
    classID: 212
    script: {fileID: 0}
  m_SampleRate: 12
  m_WrapMode: 0
  m_Bounds:
    m_Center: {x: 0, y: 0, z: 0}
    m_Extent: {x: 0, y: 0, z: 0}
  m_ClipBindingConstant:
    genericBindings:
    - serializedVersion: 2
      path: 0
      attribute: 0
      script: {fileID: 0}
      typeID: 212
      customType: 23
      isPPtrCurve: 1
    pptrCurveMapping:
    - {fileID: 21300000, guid: 1b49ae4bd9b0fac4d844ac493a7733cf, type: 3}
    - {fileID: 21300000, guid: 928aead93963f4d4580b18f0d8b1f0a1, type: 3}
    - {fileID: 21300000, guid: 94421c04fcaec1c458bc39d62fcc93a7, type: 3}
    - {fileID: 21300000, guid: 7ce1d7cb63f4fc4478f978bf84ea96ee, type: 3}
    - {fileID: 21300000, guid: d1c1c76dd17723949beb507b58b9e958, type: 3}
    - {fileID: 21300000, guid: f317c5f76520b0a428713af4bc50aa68, type: 3}
    - {fileID: 21300000, guid: 12691dc202fe5784fb84fd32adc070d4, type: 3}
    - {fileID: 21300000, guid: 586180d4df40c534bb5f1ced7e979e91, type: 3}
    - {fileID: 21300000, guid: 2b61ec3d7ac85d7448238a4e1c62aa5a, type: 3}
  m_AnimationClipSettings:
    serializedVersion: 2
    m_AdditiveReferencePoseClip: {fileID: 0}
    m_AdditiveReferencePoseTime: 0
    m_StartTime: 0
    m_StopTime: 0.8333333
    m_OrientationOffsetY: 0
    m_Level: 0
    m_CycleOffset: 0
    m_HasAdditiveReferencePose: 0
    m_LoopTime: 1
    m_LoopBlend: 0
    m_LoopBlendOrientation: 0
    m_LoopBlendPositionY: 0
    m_LoopBlendPositionXZ: 0
    m_KeepOriginalOrientation: 0
    m_KeepOriginalPositionY: 1
    m_KeepOriginalPositionXZ: 0
    m_HeightFromFeet: 0
    m_Mirror: 0
  m_EditorCurves: []
  m_EulerEditorCurves: []
  m_HasGenericRootTransform: 0
  m_HasMotionFloatCurves: 0
  m_Events: []
