%YAML 1.1
%TAG !u! tag:unity3d.com,2011:
--- !u!74 &7400000
AnimationClip:
  m_ObjectHideFlags: 0
  m_CorrespondingSourceObject: {fileID: 0}
  m_PrefabInstance: {fileID: 0}
  m_PrefabAsset: {fileID: 0}
  m_Name: zombie2walk
  serializedVersion: 6
  m_Legacy: 0
  m_Compressed: 0
  m_UseHighQualityCurve: 1
  m_RotationCurves: []
  m_CompressedRotationCurves: []
  m_EulerCurves: []
  m_PositionCurves: []
  m_ScaleCurves: []
  m_FloatCurves: []
  m_PPtrCurves:
  - curve:
    - time: 0
      value: {fileID: 21300000, guid: 38b2e97cd896a36498227e3a7db9a334, type: 3}
    - time: 0.083333336
      value: {fileID: 21300000, guid: 1cceb2bf1d9861c42a519af831e0215d, type: 3}
    - time: 0.16666667
      value: {fileID: 21300000, guid: 333a581ee93c7dc46bf372134e742b1e, type: 3}
    - time: 0.25
      value: {fileID: 21300000, guid: caf5149fa24a9b042b7f217290ce509e, type: 3}
    - time: 0.33333334
      value: {fileID: 21300000, guid: d6a6ed25ef1cad344ae44aa15c4c6cbd, type: 3}
    - time: 0.41666666
      value: {fileID: 21300000, guid: 5cf5968321904aa44a429106d8cead33, type: 3}
    - time: 0.5
      value: {fileID: 21300000, guid: 0387d46fde4fc834b87f4928900316d7, type: 3}
    - time: 0.5833333
      value: {fileID: 21300000, guid: c9066b72e2554244e81dc8eb40f33c86, type: 3}
    - time: 0.6666667
      value: {fileID: 21300000, guid: 60e2f815f4f360b49999f5a9bb2c5f88, type: 3}
    - time: 0.75
      value: {fileID: 21300000, guid: 417948b92e5839b428bef7100f6305b1, type: 3}
    attribute: m_Sprite
    path: 
    classID: 212
    script: {fileID: 0}
  m_SampleRate: 12
  m_WrapMode: 0
  m_Bounds:
    m_Center: {x: 0, y: 0, z: 0}
    m_Extent: {x: 0, y: 0, z: 0}
  m_ClipBindingConstant:
    genericBindings:
    - serializedVersion: 2
      path: 0
      attribute: 0
      script: {fileID: 0}
      typeID: 212
      customType: 23
      isPPtrCurve: 1
    pptrCurveMapping:
    - {fileID: 21300000, guid: 38b2e97cd896a36498227e3a7db9a334, type: 3}
    - {fileID: 21300000, guid: 1cceb2bf1d9861c42a519af831e0215d, type: 3}
    - {fileID: 21300000, guid: 333a581ee93c7dc46bf372134e742b1e, type: 3}
    - {fileID: 21300000, guid: caf5149fa24a9b042b7f217290ce509e, type: 3}
    - {fileID: 21300000, guid: d6a6ed25ef1cad344ae44aa15c4c6cbd, type: 3}
    - {fileID: 21300000, guid: 5cf5968321904aa44a429106d8cead33, type: 3}
    - {fileID: 21300000, guid: 0387d46fde4fc834b87f4928900316d7, type: 3}
    - {fileID: 21300000, guid: c9066b72e2554244e81dc8eb40f33c86, type: 3}
    - {fileID: 21300000, guid: 60e2f815f4f360b49999f5a9bb2c5f88, type: 3}
    - {fileID: 21300000, guid: 417948b92e5839b428bef7100f6305b1, type: 3}
  m_AnimationClipSettings:
    serializedVersion: 2
    m_AdditiveReferencePoseClip: {fileID: 0}
    m_AdditiveReferencePoseTime: 0
    m_StartTime: 0
    m_StopTime: 0.8333333
    m_OrientationOffsetY: 0
    m_Level: 0
    m_CycleOffset: 0
    m_HasAdditiveReferencePose: 0
    m_LoopTime: 1
    m_LoopBlend: 0
    m_LoopBlendOrientation: 0
    m_LoopBlendPositionY: 0
    m_LoopBlendPositionXZ: 0
    m_KeepOriginalOrientation: 0
    m_KeepOriginalPositionY: 1
    m_KeepOriginalPositionXZ: 0
    m_HeightFromFeet: 0
    m_Mirror: 0
  m_EditorCurves: []
  m_EulerEditorCurves: []
  m_HasGenericRootTransform: 0
  m_HasMotionFloatCurves: 0
  m_Events: []
