%YAML 1.1
%TAG !u! tag:unity3d.com,2011:
--- !u!74 &7400000
AnimationClip:
  m_ObjectHideFlags: 0
  m_CorrespondingSourceObject: {fileID: 0}
  m_PrefabInstance: {fileID: 0}
  m_PrefabAsset: {fileID: 0}
  m_Name: zombieidle
  serializedVersion: 6
  m_Legacy: 0
  m_Compressed: 0
  m_UseHighQualityCurve: 1
  m_RotationCurves: []
  m_CompressedRotationCurves: []
  m_EulerCurves: []
  m_PositionCurves: []
  m_ScaleCurves: []
  m_FloatCurves: []
  m_PPtrCurves:
  - curve:
    - time: 0
      value: {fileID: 21300000, guid: 28f36f11321b34d439e7f30566ea1977, type: 3}
    - time: 0.083333336
      value: {fileID: 21300000, guid: 91183c698bd7bbb468a1f4134f159688, type: 3}
    - time: 0.16666667
      value: {fileID: 21300000, guid: 0bbba8a50ed19c04a93b9852a4b4a9c3, type: 3}
    - time: 0.25
      value: {fileID: 21300000, guid: 2ad8ab94fcc8e5744ab870f14b3a7d54, type: 3}
    - time: 0.33333334
      value: {fileID: 21300000, guid: 7f72a71ef9303764a93d102659dbc4bd, type: 3}
    - time: 0.41666666
      value: {fileID: 21300000, guid: a10d8d1e3b25c5e4b8ef6558be399c3a, type: 3}
    - time: 0.5
      value: {fileID: 21300000, guid: c54057d17b913354fab47734f1bac6f6, type: 3}
    - time: 0.5833333
      value: {fileID: 21300000, guid: d359fa2b7b3faf14d866025f96f79386, type: 3}
    - time: 0.6666667
      value: {fileID: 21300000, guid: 1b4457385efbda546b1e69b41044c8bf, type: 3}
    - time: 0.75
      value: {fileID: 21300000, guid: 4758012005d5b16498078ba762a6c85a, type: 3}
    - time: 0.8333333
      value: {fileID: 21300000, guid: 4a30d97b3980dd4439f792099983de86, type: 3}
    - time: 0.9166667
      value: {fileID: 21300000, guid: d5224074f2cf9044a957b03c021df18e, type: 3}
    - time: 1
      value: {fileID: 21300000, guid: fc7b7e5d321b63344810977ee3312f17, type: 3}
    - time: 1.0833334
      value: {fileID: 21300000, guid: 1d74de2befa642646baa0dcfaf1013f5, type: 3}
    - time: 1.1666666
      value: {fileID: 21300000, guid: 295293cc9b3fde646bac314c31798906, type: 3}
    attribute: m_Sprite
    path: 
    classID: 212
    script: {fileID: 0}
  m_SampleRate: 12
  m_WrapMode: 0
  m_Bounds:
    m_Center: {x: 0, y: 0, z: 0}
    m_Extent: {x: 0, y: 0, z: 0}
  m_ClipBindingConstant:
    genericBindings:
    - serializedVersion: 2
      path: 0
      attribute: 0
      script: {fileID: 0}
      typeID: 212
      customType: 23
      isPPtrCurve: 1
    pptrCurveMapping:
    - {fileID: 21300000, guid: 28f36f11321b34d439e7f30566ea1977, type: 3}
    - {fileID: 21300000, guid: 91183c698bd7bbb468a1f4134f159688, type: 3}
    - {fileID: 21300000, guid: 0bbba8a50ed19c04a93b9852a4b4a9c3, type: 3}
    - {fileID: 21300000, guid: 2ad8ab94fcc8e5744ab870f14b3a7d54, type: 3}
    - {fileID: 21300000, guid: 7f72a71ef9303764a93d102659dbc4bd, type: 3}
    - {fileID: 21300000, guid: a10d8d1e3b25c5e4b8ef6558be399c3a, type: 3}
    - {fileID: 21300000, guid: c54057d17b913354fab47734f1bac6f6, type: 3}
    - {fileID: 21300000, guid: d359fa2b7b3faf14d866025f96f79386, type: 3}
    - {fileID: 21300000, guid: 1b4457385efbda546b1e69b41044c8bf, type: 3}
    - {fileID: 21300000, guid: 4758012005d5b16498078ba762a6c85a, type: 3}
    - {fileID: 21300000, guid: 4a30d97b3980dd4439f792099983de86, type: 3}
    - {fileID: 21300000, guid: d5224074f2cf9044a957b03c021df18e, type: 3}
    - {fileID: 21300000, guid: fc7b7e5d321b63344810977ee3312f17, type: 3}
    - {fileID: 21300000, guid: 1d74de2befa642646baa0dcfaf1013f5, type: 3}
    - {fileID: 21300000, guid: 295293cc9b3fde646bac314c31798906, type: 3}
  m_AnimationClipSettings:
    serializedVersion: 2
    m_AdditiveReferencePoseClip: {fileID: 0}
    m_AdditiveReferencePoseTime: 0
    m_StartTime: 0
    m_StopTime: 1.25
    m_OrientationOffsetY: 0
    m_Level: 0
    m_CycleOffset: 0
    m_HasAdditiveReferencePose: 0
    m_LoopTime: 1
    m_LoopBlend: 0
    m_LoopBlendOrientation: 0
    m_LoopBlendPositionY: 0
    m_LoopBlendPositionXZ: 0
    m_KeepOriginalOrientation: 0
    m_KeepOriginalPositionY: 1
    m_KeepOriginalPositionXZ: 0
    m_HeightFromFeet: 0
    m_Mirror: 0
  m_EditorCurves: []
  m_EulerEditorCurves: []
  m_HasGenericRootTransform: 0
  m_HasMotionFloatCurves: 0
  m_Events: []
